INDEX VERSION 1.129+C:\Users\asadu\Downloads\Katalon_Studio_Windows_64-7.0.2\config\.metadata\.plugins\org.eclipse.jdt.core
1541267712.index
2328269416.index
2310882834.index
2645636097.index
4257325822.index
1668102539.index
431561150.index
4266183682.index
